module gitlab.com/vsqs/go_sample_app

go 1.17

require (
	cloud.google.com/go/compute v1.6.1 // indirect
	github.com/Azure/go-autorest v14.2.0+incompatible // indirect
	github.com/Azure/go-autorest/autorest v0.11.27 // indirect
	github.com/Azure/go-autorest/autorest/adal v0.9.19 // indirect
	github.com/Azure/go-autorest/autorest/date v0.3.0 // indirect
	github.com/Azure/go-autorest/logger v0.2.1 // indirect
	github.com/Azure/go-autorest/tracing v0.6.0 // indirect
	github.com/Masterminds/semver/v3 v3.1.1 // indirect
	github.com/Masterminds/squirrel v1.5.2 // indirect
	github.com/cyphar/filepath-securejoin v0.2.3 // indirect
	github.com/davecgh/go-spew v1.1.1 // indirect
	github.com/docker/cli v20.10.15+incompatible // indirect
	github.com/docker/distribution v2.8.1+incompatible // indirect
	github.com/docker/docker v20.10.15+incompatible // indirect
	github.com/docker/docker-credential-helpers v0.6.4 // indirect
	github.com/emicklei/go-restful v2.15.0+incompatible // indirect
	github.com/evanphx/json-patch v5.6.0+incompatible // indirect
	github.com/fairwindsops/nova v0.0.0-20220526160249-a0734b92fcf4 // indirect
	github.com/fsnotify/fsnotify v1.5.4 // indirect
	github.com/go-gorp/gorp/v3 v3.0.2 // indirect
	github.com/go-logr/logr v1.2.3 // indirect
	github.com/go-openapi/jsonpointer v0.19.5 // indirect
	github.com/go-openapi/jsonreference v0.20.0 // indirect
	github.com/go-openapi/swag v0.21.1 // indirect
	github.com/gogo/protobuf v1.3.2 // indirect
	github.com/golang-jwt/jwt/v4 v4.4.1 // indirect
	github.com/golang/protobuf v1.5.2 // indirect
	github.com/google/gnostic v0.6.9 // indirect
	github.com/google/go-containerregistry v0.8.0 // indirect
	github.com/google/gofuzz v1.2.0 // indirect
	github.com/hashicorp/hcl v1.0.0 // indirect
	github.com/imdario/mergo v0.3.12 // indirect
	github.com/inconshreveable/mousetrap v1.0.0 // indirect
	github.com/jmoiron/sqlx v1.3.5 // indirect
	github.com/josharian/intern v1.0.0 // indirect
	github.com/json-iterator/go v1.1.12 // indirect
	github.com/lann/builder v0.0.0-20180802200727-47ae307949d0 // indirect
	github.com/lann/ps v0.0.0-20150810152359-62de8c46ede0 // indirect
	github.com/lib/pq v1.10.5 // indirect
	github.com/magiconair/properties v1.8.6 // indirect
	github.com/mailru/easyjson v0.7.7 // indirect
	github.com/mcuadros/go-version v0.0.0-20190830083331-035f6764e8d2 // indirect
	github.com/mitchellh/copystructure v1.2.0 // indirect
	github.com/mitchellh/go-homedir v1.1.0 // indirect
	github.com/mitchellh/mapstructure v1.5.0 // indirect
	github.com/mitchellh/reflectwalk v1.0.2 // indirect
	github.com/modern-go/concurrent v0.0.0-20180306012644-bacd9c7ef1dd // indirect
	github.com/modern-go/reflect2 v1.0.2 // indirect
	github.com/munnerz/goautoneg v0.0.0-20191010083416-a7dc8b61c822 // indirect
	github.com/opencontainers/go-digest v1.0.0 // indirect
	github.com/opencontainers/image-spec v1.0.2 // indirect
	github.com/pelletier/go-toml v1.9.5 // indirect
	github.com/pelletier/go-toml/v2 v2.0.0 // indirect
	github.com/pkg/errors v0.9.1 // indirect
	github.com/pmezard/go-difflib v1.0.0 // indirect
	github.com/rubenv/sql-migrate v1.1.1 // indirect
	github.com/sirupsen/logrus v1.8.1 // indirect
	github.com/spf13/afero v1.8.2 // indirect
	github.com/spf13/cast v1.4.1 // indirect
	github.com/spf13/cobra v1.4.0 // indirect
	github.com/spf13/jwalterweatherman v1.1.0 // indirect
	github.com/spf13/pflag v1.0.5 // indirect
	github.com/spf13/viper v1.11.0 // indirect
	github.com/stretchr/objx v0.2.0 // indirect
	github.com/stretchr/testify v1.7.1 // indirect
	github.com/subosito/gotenv v1.2.0 // indirect
	github.com/xeipuuv/gojsonpointer v0.0.0-20190905194746-02993c407bfb // indirect
	github.com/xeipuuv/gojsonreference v0.0.0-20180127040603-bd5ef7bd5415 // indirect
	github.com/xeipuuv/gojsonschema v1.2.0 // indirect
	golang.org/x/crypto v0.0.0-20220507011949-2cf3adece122 // indirect
	golang.org/x/net v0.0.0-20220425223048-2871e0cb64e4 // indirect
	golang.org/x/oauth2 v0.0.0-20220411215720-9780585627b5 // indirect
	golang.org/x/sync v0.0.0-20210220032951-036812b2e83c // indirect
	golang.org/x/sys v0.0.0-20220503163025-988cb79eb6c6 // indirect
	golang.org/x/term v0.0.0-20220411215600-e5f449aeb171 // indirect
	golang.org/x/text v0.3.7 // indirect
	golang.org/x/time v0.0.0-20220411224347-583f2d630306 // indirect
	google.golang.org/appengine v1.6.7 // indirect
	google.golang.org/protobuf v1.28.0 // indirect
	gopkg.in/inf.v0 v0.9.1 // indirect
	gopkg.in/ini.v1 v1.66.4 // indirect
	gopkg.in/yaml.v2 v2.4.0 // indirect
	gopkg.in/yaml.v3 v3.0.0-20210107192922-496545a6307b // indirect
	helm.sh/helm/v3 v3.8.2 // indirect
	k8s.io/api v0.24.0 // indirect
	k8s.io/apiextensions-apiserver v0.24.0 // indirect
	k8s.io/apimachinery v0.24.0 // indirect
	k8s.io/client-go v0.24.0 // indirect
	k8s.io/klog/v2 v2.60.1 // indirect
	k8s.io/kube-openapi v0.0.0-20220413171646-5e7f5fdc6da6 // indirect
	k8s.io/utils v0.0.0-20220210201930-3a6ce19ff2f9 // indirect
	sigs.k8s.io/controller-runtime v0.11.2 // indirect
	sigs.k8s.io/json v0.0.0-20211208200746-9f7c6b3444d2 // indirect
	sigs.k8s.io/structured-merge-diff/v4 v4.2.1 // indirect
	sigs.k8s.io/yaml v1.3.0 // indirect
)
